{
  "KillCount": [
    {
      "serverId": "aaa",
      "userId": "1",
      "count": 10,
      "month": 1,
      "year": 2019
    },
    {
      "serverId": "aaa",
      "userId": "2",
      "count": 5,
      "month": 1,
      "year": 2019
    },
    {
      "serverId": "aaa",
      "userId": "1",
      "count": 1,
      "month": 2,
      "year": 2019
    },
    {
      "serverId": "bbb",
      "userId": "1",
      "count": 10,
      "month": 1,
      "year": 2019
    }
  ]
}
