{
  "ServerSetting": [
    {
      "serverId": "aaa",
      "defaultTime": 10,
      "prefix": "+pr",
      "setAllowedRoleIds": "a,b,c",
      "channelNames": "chA,chB,chC",
      "notifyUsersIds": "u1,u2,u3"
    },
    {
      "serverId": "bbb",
      "defaultTime": 10,
      "prefix": "+pr"
    }
  ]
}
